^C:\USERS\FUKUOKA-05\DOCUMENTS\CGDXSHADER\SHAPEPROCESS\SHAPEPROCESS\RELEASE\APPLICATION.OBJ|C:\USERS\FUKUOKA-05\DOCUMENTS\CGDXSHADER\SHAPEPROCESS\SHAPEPROCESS\RELEASE\AXES.OBJ|C:\USERS\FUKUOKA-05\DOCUMENTS\CGDXSHADER\SHAPEPROCESS\SHAPEPROCESS\RELEASE\BERNSTAIN.OBJ|C:\USERS\FUKUOKA-05\DOCUMENTS\CGDXSHADER\SHAPEPROCESS\SHAPEPROCESS\RELEASE\BEZIERBASE.OBJ|C:\USERS\FUKUOKA-05\DOCUMENTS\CGDXSHADER\SHAPEPROCESS\SHAPEPROCESS\RELEASE\BEZIERCURVE.OBJ|C:\USERS\FUKUOKA-05\DOCUMENTS\CGDXSHADER\SHAPEPROCESS\SHAPEPROCESS\RELEASE\BEZIERSURFACE.OBJ|C:\USERS\FUKUOKA-05\DOCUMENTS\CGDXSHADER\SHAPEPROCESS\SHAPEPROCESS\RELEASE\BSPLINEBASE.OBJ|C:\USERS\FUKUOKA-05\DOCUMENTS\CGDXSHADER\SHAPEPROCESS\SHAPEPROCESS\RELEASE\BSPLINECURVE.OBJ|C:\USERS\FUKUOKA-05\DOCUMENTS\CGDXSHADER\SHAPEPROCESS\SHAPEPROCESS\RELEASE\BSPLINESURFACE.OBJ|C:\USERS\FUKUOKA-05\DOCUMENTS\CGDXSHADER\SHAPEPROCESS\SHAPEPROCESS\RELEASE\CAMERA.OBJ|C:\USERS\FUKUOKA-05\DOCUMENTS\CGDXSHADER\SHAPEPROCESS\SHAPEPROCESS\RELEASE\COLLISIONDETECTOR.OBJ|C:\USERS\FUKUOKA-05\DOCUMENTS\CGDXSHADER\SHAPEPROCESS\SHAPEPROCESS\RELEASE\CUBE.OBJ|C:\USERS\FUKUOKA-05\DOCUMENTS\CGDXSHADER\SHAPEPROCESS\SHAPEPROCESS\RELEASE\DXCAMERA.OBJ|C:\USERS\FUKUOKA-05\DOCUMENTS\CGDXSHADER\SHAPEPROCESS\SHAPEPROCESS\RELEASE\ENTITY.OBJ|C:\USERS\FUKUOKA-05\DOCUMENTS\CGDXSHADER\SHAPEPROCESS\SHAPEPROCESS\RELEASE\EXWINDOW.OBJ|C:\USERS\FUKUOKA-05\DOCUMENTS\CGDXSHADER\SHAPEPROCESS\SHAPEPROCESS\RELEASE\FILE.OBJ|C:\USERS\FUKUOKA-05\DOCUMENTS\CGDXSHADER\SHAPEPROCESS\SHAPEPROCESS\RELEASE\LINE.OBJ|C:\USERS\FUKUOKA-05\DOCUMENTS\CGDXSHADER\SHAPEPROCESS\SHAPEPROCESS\RELEASE\LINESTRIP.OBJ|C:\USERS\FUKUOKA-05\DOCUMENTS\CGDXSHADER\SHAPEPROCESS\SHAPEPROCESS\RELEASE\MAIN.OBJ|C:\USERS\FUKUOKA-05\DOCUMENTS\CGDXSHADER\SHAPEPROCESS\SHAPEPROCESS\RELEASE\MC2.OBJ|C:\USERS\FUKUOKA-05\DOCUMENTS\CGDXSHADER\SHAPEPROCESS\SHAPEPROCESS\RELEASE\MMBOX.OBJ|C:\USERS\FUKUOKA-05\DOCUMENTS\CGDXSHADER\SHAPEPROCESS\SHAPEPROCESS\RELEASE\MODEL.OBJ|C:\USERS\FUKUOKA-05\DOCUMENTS\CGDXSHADER\SHAPEPROCESS\SHAPEPROCESS\RELEASE\POINT.OBJ|C:\USERS\FUKUOKA-05\DOCUMENTS\CGDXSHADER\SHAPEPROCESS\SHAPEPROCESS\RELEASE\QUATERNION.OBJ|C:\USERS\FUKUOKA-05\DOCUMENTS\CGDXSHADER\SHAPEPROCESS\SHAPEPROCESS\RELEASE\SHAPEPROCESS.OBJ|C:\USERS\FUKUOKA-05\DOCUMENTS\CGDXSHADER\SHAPEPROCESS\SHAPEPROCESS\RELEASE\SHAPEPROCESS.RES|C:\USERS\FUKUOKA-05\DOCUMENTS\CGDXSHADER\SHAPEPROCESS\SHAPEPROCESS\RELEASE\SPANGLE.OBJ|C:\USERS\FUKUOKA-05\DOCUMENTS\CGDXSHADER\SHAPEPROCESS\SHAPEPROCESS\RELEASE\SPFILE.OBJ|C:\USERS\FUKUOKA-05\DOCUMENTS\CGDXSHADER\SHAPEPROCESS\SHAPEPROCESS\RELEASE\TRIMLOOP.OBJ|C:\USERS\FUKUOKA-05\DOCUMENTS\CGDXSHADER\SHAPEPROCESS\SHAPEPROCESS\RELEASE\VECTOR3.OBJ|C:\USERS\FUKUOKA-05\DOCUMENTS\CGDXSHADER\SHAPEPROCESS\SHAPEPROCESS\RELEASE\VMUTIL.OBJ|C:\USERS\FUKUOKA-05\DOCUMENTS\CGDXSHADER\SHAPEPROCESS\SHAPEPROCESS\RELEASE\XMUTIL.OBJ
C:\PROGRAM FILES (X86)\MICROSOFT VISUAL STUDIO\2017\COMMUNITY\VC\TOOLS\MSVC\14.14.26428\BIN\HOSTX86\X86\LINK.EXE
C:\PROGRAM FILES (X86)\WINDOWS KITS\10\LIB\10.0.15063.0\UM\X86\KERNEL32.LIB
C:\PROGRAM FILES (X86)\WINDOWS KITS\10\LIB\10.0.15063.0\UM\X86\USER32.LIB
C:\PROGRAM FILES (X86)\WINDOWS KITS\10\LIB\10.0.15063.0\UM\X86\GDI32.LIB
C:\PROGRAM FILES (X86)\WINDOWS KITS\10\LIB\10.0.15063.0\UM\X86\WINSPOOL.LIB
C:\PROGRAM FILES (X86)\WINDOWS KITS\10\LIB\10.0.15063.0\UM\X86\COMDLG32.LIB
C:\PROGRAM FILES (X86)\WINDOWS KITS\10\LIB\10.0.15063.0\UM\X86\ADVAPI32.LIB
C:\PROGRAM FILES (X86)\WINDOWS KITS\10\LIB\10.0.15063.0\UM\X86\SHELL32.LIB
C:\PROGRAM FILES (X86)\WINDOWS KITS\10\LIB\10.0.15063.0\UM\X86\OLE32.LIB
C:\PROGRAM FILES (X86)\WINDOWS KITS\10\LIB\10.0.15063.0\UM\X86\OLEAUT32.LIB
C:\PROGRAM FILES (X86)\WINDOWS KITS\10\LIB\10.0.15063.0\UM\X86\UUID.LIB
C:\PROGRAM FILES (X86)\WINDOWS KITS\10\LIB\10.0.15063.0\UM\X86\ODBC32.LIB
C:\PROGRAM FILES (X86)\WINDOWS KITS\10\LIB\10.0.15063.0\UM\X86\ODBCCP32.LIB
C:\USERS\FUKUOKA-05\DOCUMENTS\CGDXSHADER\SHAPEPROCESS\SHAPEPROCESS\RELEASE\SHAPEPROCESS.RES
C:\USERS\FUKUOKA-05\DOCUMENTS\CGDXSHADER\SHAPEPROCESS\SHAPEPROCESS\RELEASE\AXES.OBJ
C:\USERS\FUKUOKA-05\DOCUMENTS\CGDXSHADER\SHAPEPROCESS\SHAPEPROCESS\RELEASE\BERNSTAIN.OBJ
C:\USERS\FUKUOKA-05\DOCUMENTS\CGDXSHADER\SHAPEPROCESS\SHAPEPROCESS\RELEASE\BEZIERBASE.OBJ
C:\USERS\FUKUOKA-05\DOCUMENTS\CGDXSHADER\SHAPEPROCESS\SHAPEPROCESS\RELEASE\BEZIERCURVE.OBJ
C:\USERS\FUKUOKA-05\DOCUMENTS\CGDXSHADER\SHAPEPROCESS\SHAPEPROCESS\RELEASE\BEZIERSURFACE.OBJ
C:\USERS\FUKUOKA-05\DOCUMENTS\CGDXSHADER\SHAPEPROCESS\SHAPEPROCESS\RELEASE\BSPLINEBASE.OBJ
C:\USERS\FUKUOKA-05\DOCUMENTS\CGDXSHADER\SHAPEPROCESS\SHAPEPROCESS\RELEASE\BSPLINECURVE.OBJ
C:\USERS\FUKUOKA-05\DOCUMENTS\CGDXSHADER\SHAPEPROCESS\SHAPEPROCESS\RELEASE\APPLICATION.OBJ
C:\USERS\FUKUOKA-05\DOCUMENTS\CGDXSHADER\SHAPEPROCESS\SHAPEPROCESS\RELEASE\BSPLINESURFACE.OBJ
C:\USERS\FUKUOKA-05\DOCUMENTS\CGDXSHADER\SHAPEPROCESS\SHAPEPROCESS\RELEASE\CAMERA.OBJ
C:\USERS\FUKUOKA-05\DOCUMENTS\CGDXSHADER\SHAPEPROCESS\SHAPEPROCESS\RELEASE\COLLISIONDETECTOR.OBJ
C:\USERS\FUKUOKA-05\DOCUMENTS\CGDXSHADER\SHAPEPROCESS\SHAPEPROCESS\RELEASE\CUBE.OBJ
C:\USERS\FUKUOKA-05\DOCUMENTS\CGDXSHADER\SHAPEPROCESS\SHAPEPROCESS\RELEASE\DXCAMERA.OBJ
C:\USERS\FUKUOKA-05\DOCUMENTS\CGDXSHADER\SHAPEPROCESS\SHAPEPROCESS\RELEASE\ENTITY.OBJ
C:\USERS\FUKUOKA-05\DOCUMENTS\CGDXSHADER\SHAPEPROCESS\SHAPEPROCESS\RELEASE\EXWINDOW.OBJ
C:\USERS\FUKUOKA-05\DOCUMENTS\CGDXSHADER\SHAPEPROCESS\SHAPEPROCESS\RELEASE\FILE.OBJ
C:\USERS\FUKUOKA-05\DOCUMENTS\CGDXSHADER\SHAPEPROCESS\SHAPEPROCESS\RELEASE\LINE.OBJ
C:\USERS\FUKUOKA-05\DOCUMENTS\CGDXSHADER\SHAPEPROCESS\SHAPEPROCESS\RELEASE\LINESTRIP.OBJ
C:\USERS\FUKUOKA-05\DOCUMENTS\CGDXSHADER\SHAPEPROCESS\SHAPEPROCESS\RELEASE\MAIN.OBJ
C:\USERS\FUKUOKA-05\DOCUMENTS\CGDXSHADER\SHAPEPROCESS\SHAPEPROCESS\RELEASE\MC2.OBJ
C:\USERS\FUKUOKA-05\DOCUMENTS\CGDXSHADER\SHAPEPROCESS\SHAPEPROCESS\RELEASE\MMBOX.OBJ
C:\USERS\FUKUOKA-05\DOCUMENTS\CGDXSHADER\SHAPEPROCESS\SHAPEPROCESS\RELEASE\MODEL.OBJ
C:\USERS\FUKUOKA-05\DOCUMENTS\CGDXSHADER\SHAPEPROCESS\SHAPEPROCESS\RELEASE\POINT.OBJ
C:\USERS\FUKUOKA-05\DOCUMENTS\CGDXSHADER\SHAPEPROCESS\SHAPEPROCESS\RELEASE\QUATERNION.OBJ
C:\USERS\FUKUOKA-05\DOCUMENTS\CGDXSHADER\SHAPEPROCESS\SHAPEPROCESS\RELEASE\SHAPEPROCESS.OBJ
C:\USERS\FUKUOKA-05\DOCUMENTS\CGDXSHADER\SHAPEPROCESS\SHAPEPROCESS\RELEASE\SPANGLE.OBJ
C:\USERS\FUKUOKA-05\DOCUMENTS\CGDXSHADER\SHAPEPROCESS\SHAPEPROCESS\RELEASE\SPFILE.OBJ
C:\USERS\FUKUOKA-05\DOCUMENTS\CGDXSHADER\SHAPEPROCESS\SHAPEPROCESS\RELEASE\TRIMLOOP.OBJ
C:\USERS\FUKUOKA-05\DOCUMENTS\CGDXSHADER\SHAPEPROCESS\SHAPEPROCESS\RELEASE\VECTOR3.OBJ
C:\USERS\FUKUOKA-05\DOCUMENTS\CGDXSHADER\SHAPEPROCESS\SHAPEPROCESS\RELEASE\VMUTIL.OBJ
C:\USERS\FUKUOKA-05\DOCUMENTS\CGDXSHADER\SHAPEPROCESS\SHAPEPROCESS\RELEASE\XMUTIL.OBJ
C:\WINDOWS\GLOBALIZATION\SORTING\SORTDEFAULT.NLS
C:\PROGRAM FILES (X86)\MICROSOFT VISUAL STUDIO\2017\COMMUNITY\VC\TOOLS\MSVC\14.14.26428\BIN\HOSTX86\X86\C2.DLL
C:\PROGRAM FILES (X86)\WINDOWS KITS\10\LIB\10.0.15063.0\UM\X86\D3D11.LIB
C:\PROGRAM FILES (X86)\WINDOWS KITS\10\LIB\10.0.15063.0\UM\X86\D3DCOMPILER.LIB
C:\PROGRAM FILES (X86)\WINDOWS KITS\10\LIB\10.0.15063.0\UM\X86\DINPUT8.LIB
C:\PROGRAM FILES (X86)\WINDOWS KITS\10\LIB\10.0.15063.0\UM\X86\DXGUID.LIB
C:\PROGRAM FILES (X86)\WINDOWS KITS\10\LIB\10.0.15063.0\UM\X86\WINMM.LIB
C:\PROGRAM FILES (X86)\WINDOWS KITS\10\LIB\10.0.15063.0\UM\X86\DXGI.LIB
C:\PROGRAM FILES (X86)\WINDOWS KITS\10\LIB\10.0.15063.0\UM\X86\D2D1.LIB
C:\PROGRAM FILES (X86)\WINDOWS KITS\10\LIB\10.0.15063.0\UM\X86\DCOMP.LIB
C:\PROGRAM FILES (X86)\MICROSOFT VISUAL STUDIO\2017\COMMUNITY\VC\TOOLS\MSVC\14.14.26428\LIB\X86\MSVCPRT.LIB
C:\PROGRAM FILES (X86)\MICROSOFT VISUAL STUDIO\2017\COMMUNITY\VC\TOOLS\MSVC\14.14.26428\LIB\X86\MSVCRT.LIB
C:\PROGRAM FILES (X86)\MICROSOFT VISUAL STUDIO\2017\COMMUNITY\VC\TOOLS\MSVC\14.14.26428\LIB\X86\OLDNAMES.LIB
C:\PROGRAM FILES (X86)\MICROSOFT VISUAL STUDIO\2017\COMMUNITY\VC\TOOLS\MSVC\14.14.26428\LIB\X86\VCRUNTIME.LIB
C:\PROGRAM FILES (X86)\WINDOWS KITS\10\LIB\10.0.15063.0\UCRT\X86\UCRT.LIB
C:\PROGRAM FILES (X86)\MICROSOFT VISUAL STUDIO\2017\COMMUNITY\VC\TOOLS\MSVC\14.14.26428\BIN\HOSTX86\X86\1041\LINKUI.DLL
C:\PROGRAM FILES (X86)\WINDOWS KITS\10\BIN\10.0.15063.0\X86\RC.EXE
C:\PROGRAM FILES (X86)\MICROSOFT VISUAL STUDIO\2017\COMMUNITY\VC\TOOLS\MSVC\14.14.26428\BIN\HOSTX86\X86\CVTRES.EXE
C:\PROGRAM FILES (X86)\MICROSOFT VISUAL STUDIO\2017\COMMUNITY\VC\TOOLS\MSVC\14.14.26428\BIN\HOSTX86\X86\MSPDBSRV.EXE
C:\WINDOWS\SYSTEM32\TZRES.DLL
